module gitlab.com/jvazquez85/logixbox-challenge/bot-client

go 1.15

require (
	github.com/stretchr/objx v0.3.0 // indirect
	github.com/stretchr/testify v1.7.0
	gopkg.in/yaml.v3 v3.0.0-20210107192922-496545a6307b // indirect
)
